Exploratory analysis of year 2 surveillance data
…
[1] "/Users/leahlariscy/Desktop/MADA2023/leahlariscy-MADA-project"

n1_n2_clean <- readRDS(here("data/processed_data/year2_cfx_clean.rds"))
plant_clean <- readRDS(here("data/processed_data/year2_plant_clean.rds"))
n1_n2_plant_combine <- readRDS(here("data/processed_data/year2_cfx_plant_combined.rds"))
covid_combine <- readRDS(here("data/processed_data/all_covid_combined.rds"))
all_data_combine <- readRDS(here("data/processed_data/year2_all_data_combined.rds"))
recovery_percent <- readRDS(here("data/processed_data/recovery_percentages.rds"))

Look at all_data_combine and determine visualization to make

tibble(all_data_combine)

# A tibble: 15,179 × 17
   date       facility target biological…¹ colle…²    ct copy_…³ copy_…⁴ influ…⁵
   <date>     <ord>    <chr>  <chr>          <dbl> <dbl>   <dbl>   <dbl>   <dbl>
 1 2021-07-06 C        N1     A                 93  37.2   0.468 401091.  7.08e6
 2 2021-07-06 C        N1     A                 93  38.5   0.204 175145.  7.08e6
 3 2021-07-06 C        N1     A                 93  36.2   0.928 795705.  7.08e6
 4 2021-07-06 C        N1     B                 93  NA     0.004   3429.  7.08e6
 5 2021-07-06 C        N1     B                 93  NA     0.004   3429.  7.08e6
 6 2021-07-06 C        N1     B                 93  38.5   0.203 174006.  7.08e6
 7 2021-07-06 C        N1     C                 93  NA     0.004   3429.  7.08e6
 8 2021-07-06 C        N1     C                 93  NA     0.004   3429.  7.08e6
 9 2021-07-06 C        N1     C                 93  NA     0.004   3429.  7.08e6
10 2021-07-06 C        N2     A                 93  NA     0.004   3429.  7.08e6
# … with 15,169 more rows, 8 more variables: influent_tss_mg_l <dbl>,
#   total_copies <dbl>, cases.symptom.onset <dbl>, cases.reported <dbl>,
#   pcr_tests <dbl>, pcr_pos <dbl>, pcr_pos_7dma <dbl>, pcr_pos_14dma <dbl>,
#   and abbreviated variable names ¹​biological_replicate, ²​collection_num,
#   ³​copy_num_uL_rxn, ⁴​copy_num_L, ⁵​influent_flow_L
# ℹ Use `print(n = ...)` to see more rows, and `colnames()` to see all variable names
…
