Exploratory analysis of year 2 surveillance data
…
[1] "/Users/leahlariscy/Desktop/MADA2023/leahlariscy-MADA-project"

n1_n2_clean <- readRDS(here("data/processed_data/year2_cfx_clean.rds"))
plant_clean <- readRDS(here("data/processed_data/year2_plant_clean.rds"))
n1_n2_plant_combine <- readRDS(here("data/processed_data/year2_cfx_plant_combined.rds"))
covid_combine <- readRDS(here("data/processed_data/all_covid_combined.rds"))
all_data_combine <- readRDS(here("data/processed_data/year2_all_data_combined.rds"))
recovery_percent <- readRDS(here("data/processed_data/recovery_percentages.rds"))
n1_n2n2_avg <- readRDS(here("data/processed_data/year2_cfx_avg.rds"))

Look at all_data_combine

tibble(all_data_combine)

# A tibble: 1,190 × 15
   date       facility target collecti…¹ avg_c…² avg_c…³ influ…⁴ influ…⁵ total…⁶
   <date>     <ord>    <chr>       <dbl>   <dbl>   <dbl>   <dbl>   <dbl>   <dbl>
 1 2021-07-06 A        N1             93  24509.  0.0286  1.86e7     187 4.56e11
 2 2021-07-06 A        N2             93   3429.  0.004   1.86e7     187 6.37e10
 3 2021-07-06 B        N1             93  44933.  0.0524  1.10e7     272 4.93e11
 4 2021-07-06 B        N2             93   3429.  0.004   1.10e7     272 3.76e10
 5 2021-07-06 C        N1             93 173677.  0.203   7.08e6      96 1.23e12
 6 2021-07-06 C        N2             93  56673.  0.0661  7.08e6      96 4.01e11
 7 2021-07-12 A        N1             95 292622.  0.341   1.85e7     260 5.43e12
 8 2021-07-12 A        N2             95  37505.  0.0438  1.85e7     260 6.96e11
 9 2021-07-12 B        N1             95  77747.  0.0907  1.20e7      82 9.33e11
10 2021-07-12 B        N2             95  19161.  0.0224  1.20e7      82 2.30e11
# … with 1,180 more rows, 6 more variables: cases.symptom.onset <dbl>,
#   cases.reported <dbl>, pcr_tests <dbl>, pcr_pos <dbl>, pcr_pos_7dma <dbl>,
#   pcr_pos_14dma <dbl>, and abbreviated variable names ¹​collection_num,
#   ²​avg_copy_L, ³​avg_copy_uL_rxn, ⁴​influent_flow_L, ⁵​influent_tss_mg_l,
#   ⁶​total_copies
…
